<?xml version="1.0" encoding="UTF-8" standalone="no" ?>
<COLLADA xmlns="http://www.collada.org/2005/11/COLLADASchema" version="1.4.1">
    <asset>
        <contributor>
            <authoring_tool>SketchUp 16.0.19912</authoring_tool>
        </contributor>
        <created>2016-05-21T18:42:14Z</created>
        <modified>2016-05-21T18:42:14Z</modified>
        <unit meter="0.0254" name="inch" />
        <up_axis>Z_UP</up_axis>
    </asset>
    <library_visual_scenes>
        <visual_scene id="ID1">
            <node name="SketchUp">
                <node id="skp_camera" name="Last Saved SketchUp View">
                    <lookat>8043.575 -24255.57 12330.64 6801.286 -15779.3 6757.93 -0.07907235 0.5395186 0.8382525</lookat>
                </node>
                <node id="ID2" name="group_0">
                    <matrix>1 0 0 -2845 0 1 0 -473.6457 0 0 1 -71.96933 0 0 0 1</matrix>
                    <instance_geometry url="#ID3">
                        <bind_material>
                            <technique_common>
                                <instance_material symbol="Material2" target="#ID5">
                                    <bind_vertex_input semantic="UVSET0" input_semantic="TEXCOORD" input_set="0" />
                                </instance_material>
                            </technique_common>
                        </bind_material>
                    </instance_geometry>
                    <instance_geometry url="#ID11">
                        <bind_material>
                            <technique_common>
                                <instance_material symbol="Material2" target="#ID12">
                                    <bind_vertex_input semantic="UVSET0" input_semantic="TEXCOORD" input_set="0" />
                                </instance_material>
                            </technique_common>
                        </bind_material>
                    </instance_geometry>
                </node>
            </node>
        </visual_scene>
    </library_visual_scenes>
    <library_geometries>
        <geometry id="ID3">
            <mesh>
                <source id="ID6">
                    <float_array id="ID9" count="600">679.1339 5.115908e-013 340.5512 659.4488 393.7008 340.5512 659.4488 5.115908e-013 340.5512 679.1339 393.7008 340.5512 659.4488 393.7008 340.5512 659.4488 6.252776e-013 360.2362 659.4488 5.115908e-013 340.5512 659.4488 393.7008 360.2362 679.1339 393.7008 320.8661 679.1339 5.115908e-013 340.5512 679.1339 5.115908e-013 320.8661 679.1339 393.7008 340.5512 659.4488 6.252776e-013 360.2362 639.7638 393.7008 360.2362 639.7638 6.252776e-013 360.2362 659.4488 393.7008 360.2362 698.8189 5.115908e-013 320.8661 679.1339 393.7008 320.8661 679.1339 5.115908e-013 320.8661 698.8189 393.7008 320.8661 639.7638 393.7008 360.2362 639.7638 6.252776e-013 379.9213 639.7638 6.252776e-013 360.2362 639.7638 393.7008 379.9213 698.8189 393.7008 301.1811 698.8189 5.115908e-013 320.8661 698.8189 5.115908e-013 301.1811 698.8189 393.7008 320.8661 639.7638 6.252776e-013 379.9213 620.0787 393.7008 379.9213 620.0787 6.252776e-013 379.9213 639.7638 393.7008 379.9213 718.5039 5.115908e-013 301.1811 698.8189 393.7008 301.1811 698.8189 5.115908e-013 301.1811 718.5039 393.7008 301.1811 620.0787 393.7008 379.9213 620.0787 6.252776e-013 399.6063 620.0787 6.252776e-013 379.9213 620.0787 393.7008 399.6063 718.5039 393.7008 281.4961 718.5039 5.115908e-013 301.1811 718.5039 5.115908e-013 281.4961 718.5039 393.7008 301.1811 620.0787 6.252776e-013 399.6063 600.3937 393.7008 399.6063 600.3937 6.252776e-013 399.6063 620.0787 393.7008 399.6063 738.189 5.115908e-013 281.4961 718.5039 393.7008 281.4961 718.5039 5.115908e-013 281.4961 738.189 393.7008 281.4961 600.3937 393.7008 399.6063 600.3937 6.252776e-013 419.2913 600.3937 6.252776e-013 399.6063 600.3937 393.7008 419.2913 738.189 393.7008 261.811 738.189 5.115908e-013 281.4961 738.189 5.115908e-013 261.811 738.189 393.7008 281.4961 600.3937 6.252776e-013 419.2913 580.7087 393.7008 419.2913 580.7087 6.252776e-013 419.2913 600.3937 393.7008 419.2913 757.874 5.115908e-013 261.811 738.189 393.7008 261.811 738.189 5.115908e-013 261.811 757.874 393.7008 261.811 580.7087 393.7008 419.2913 580.7087 6.252776e-013 438.9764 580.7087 6.252776e-013 419.2913 580.7087 393.7008 438.9764 757.874 393.7008 242.126 757.874 5.115908e-013 261.811 757.874 3.979039e-013 242.126 757.874 393.7008 261.811 580.7087 6.252776e-013 438.9764 561.0236 393.7008 438.9764 561.0236 6.252776e-013 438.9764 580.7087 393.7008 438.9764 777.5591 3.979039e-013 242.126 757.874 393.7008 242.126 757.874 3.979039e-013 242.126 777.5591 393.7008 242.126 561.0236 393.7008 438.9764 561.0236 6.252776e-013 458.6614 561.0236 6.252776e-013 438.9764 561.0236 393.7008 458.6614 777.5591 393.7008 222.4409 777.5591 3.979039e-013 242.126 777.5591 3.979039e-013 222.4409 777.5591 393.7008 242.126 561.0236 6.252776e-013 458.6614 541.3386 393.7008 458.6614 541.3386 6.252776e-013 458.6614 561.0236 393.7008 458.6614 797.2441 3.979039e-013 222.4409 777.5591 393.7008 222.4409 777.5591 3.979039e-013 222.4409 797.2441 393.7008 222.4409 541.3386 393.7008 458.6614 541.3386 6.252776e-013 478.3465 541.3386 6.252776e-013 458.6614 541.3386 393.7008 478.3465 797.2441 393.7008 202.7559 797.2441 3.979039e-013 222.4409 797.2441 3.979039e-013 202.7559 797.2441 393.7008 222.4409 541.3386 6.252776e-013 478.3465 521.6535 393.7008 478.3465 521.6535 6.252776e-013 478.3465 541.3386 393.7008 478.3465 1686.648 0 202.7559 797.2441 393.7008 202.7559 797.2441 3.979039e-013 202.7559 1686.648 393.7008 202.7559 521.6535 393.7008 478.3465 521.6535 6.252776e-013 498.0315 521.6535 6.252776e-013 478.3465 521.6535 393.7008 498.0315 521.6535 6.252776e-013 498.0315 501.9685 393.7008 498.0315 501.9685 6.252776e-013 498.0315 521.6535 393.7008 498.0315 501.9685 393.7008 498.0315 501.9685 6.252776e-013 517.7165 501.9685 6.252776e-013 498.0315 501.9685 393.7008 517.7165 501.9685 6.252776e-013 517.7165 482.2835 393.7008 517.7165 482.2835 6.252776e-013 517.7165 501.9685 393.7008 517.7165 482.2835 393.7008 517.7165 482.2835 6.252776e-013 537.4016 482.2835 6.252776e-013 517.7165 482.2835 393.7008 537.4016 482.2835 6.252776e-013 537.4016 462.5984 393.7008 537.4016 462.5984 6.252776e-013 537.4016 482.2835 393.7008 537.4016 462.5984 393.7008 537.4016 462.5984 6.252776e-013 557.0866 462.5984 6.252776e-013 537.4016 462.5984 393.7008 557.0866 462.5984 6.252776e-013 557.0866 442.9134 393.7008 557.0866 442.9134 6.252776e-013 557.0866 462.5984 393.7008 557.0866 442.9134 393.7008 557.0866 442.9134 6.252776e-013 576.7717 442.9134 6.252776e-013 557.0866 442.9134 393.7008 576.7717 442.9134 6.252776e-013 576.7717 423.2283 393.7008 576.7717 423.2283 6.252776e-013 576.7717 442.9134 393.7008 576.7717 423.2283 393.7008 576.7717 423.2283 6.252776e-013 596.4567 423.2283 6.252776e-013 576.7717 423.2283 393.7008 596.4567 423.2283 6.252776e-013 596.4567 403.5433 393.7008 596.4567 403.5433 6.252776e-013 596.4567 423.2283 393.7008 596.4567 403.5433 393.7008 596.4567 403.5433 6.252776e-013 616.1417 403.5433 6.252776e-013 596.4567 403.5433 393.7008 616.1417 403.5433 6.252776e-013 616.1417 383.8583 393.7008 616.1417 383.8583 6.252776e-013 616.1417 403.5433 393.7008 616.1417 383.8583 393.7008 616.1417 383.8583 6.252776e-013 635.8268 383.8583 6.252776e-013 616.1417 383.8583 393.7008 635.8268 383.8583 6.252776e-013 635.8268 364.1732 393.7008 635.8268 364.1732 6.252776e-013 635.8268 383.8583 393.7008 635.8268 364.1732 393.7008 635.8268 364.1732 6.252776e-013 655.5118 364.1732 6.252776e-013 635.8268 364.1732 393.7008 655.5118 364.1732 6.252776e-013 655.5118 344.4882 393.7008 655.5118 344.4882 6.252776e-013 655.5118 364.1732 393.7008 655.5118 344.4882 393.7008 655.5118 344.4882 6.252776e-013 675.1969 344.4882 6.252776e-013 655.5118 344.4882 393.7008 675.1969 344.4882 6.252776e-013 675.1969 0 393.7008 675.1969 0 6.252776e-013 675.1969 344.4882 393.7008 675.1969 0 393.7008 675.1969 0 6.252776e-013 753.937 0 6.252776e-013 675.1969 0 393.7008 753.937</float_array>
                    <technique_common>
                        <accessor count="200" source="#ID9" stride="3">
                            <param name="X" type="float" />
                            <param name="Y" type="float" />
                            <param name="Z" type="float" />
                        </accessor>
                    </technique_common>
                </source>
                <source id="ID7">
                    <float_array id="ID10" count="600">2.887646e-014 1.443823e-015 1 2.887646e-014 1.443823e-015 1 2.887646e-014 1.443823e-015 1 2.887646e-014 1.443823e-015 1 1 -2.310117e-015 1.966018e-029 1 -2.310117e-015 1.966018e-029 1 -2.310117e-015 1.966018e-029 1 -2.310117e-015 1.966018e-029 1 0 0 1 0 0 1 0 0 1 0 0 -2.887646e-014 1.443823e-015 1 -2.887646e-014 1.443823e-015 1 -2.887646e-014 1.443823e-015 1 -2.887646e-014 1.443823e-015 1 0 0 1 0 0 1 0 0 1 0 0 1 1 0 0 1 0 0 1 0 0 1 0 0 1 0 0 1 0 0 1 0 0 1 0 0 0 0 1 0 0 1 0 0 1 0 0 1 0 0 1 0 0 1 0 0 1 0 0 1 1 0 0 1 0 0 1 0 0 1 0 0 1 0 0 1 0 0 1 0 0 1 0 0 0 0 1 0 0 1 0 0 1 0 0 1 0 0 1 0 0 1 0 0 1 0 0 1 1 0 0 1 0 0 1 0 0 1 0 0 1 0 0 1 0 0 1 0 0 1 0 0 0 0 1 0 0 1 0 0 1 0 0 1 -2.887646e-014 1.443823e-015 1 -2.887646e-014 1.443823e-015 1 -2.887646e-014 1.443823e-015 1 -2.887646e-014 1.443823e-015 1 1 0 0 1 0 0 1 0 0 1 0 0 1 -2.310117e-015 7.460621e-030 1 -2.310117e-015 7.460621e-030 1 -2.310117e-015 7.460621e-030 1 -2.310117e-015 7.460621e-030 0 0 1 0 0 1 0 0 1 0 0 1 2.887646e-014 1.443823e-015 1 2.887646e-014 1.443823e-015 1 2.887646e-014 1.443823e-015 1 2.887646e-014 1.443823e-015 1 1 0 0 1 0 0 1 0 0 1 0 0 1 0 0 1 0 0 1 0 0 1 0 0 0 0 1 0 0 1 0 0 1 0 0 1 0 0 1 0 0 1 0 0 1 0 0 1 1 0 0 1 0 0 1 0 0 1 0 0 1 0 0 1 0 0 1 0 0 1 0 0 0 0 1 0 0 1 0 0 1 0 0 1 0 0 1 0 0 1 0 0 1 0 0 1 1 0 0 1 0 0 1 0 0 1 0 0 0 0 1 0 0 1 0 0 1 0 0 1 1 0 0 1 0 0 1 0 0 1 0 0 0 0 1 0 0 1 0 0 1 0 0 1 1 0 0 1 0 0 1 0 0 1 0 0 0 0 1 0 0 1 0 0 1 0 0 1 1 0 0 1 0 0 1 0 0 1 0 0 0 0 1 0 0 1 0 0 1 0 0 1 1 0 0 1 0 0 1 0 0 1 0 0 0 0 1 0 0 1 0 0 1 0 0 1 1 0 0 1 0 0 1 0 0 1 0 0 0 0 1 0 0 1 0 0 1 0 0 1 1 0 0 1 0 0 1 0 0 1 0 0 0 0 1 0 0 1 0 0 1 0 0 1 1 0 0 1 0 0 1 0 0 1 0 0 0 0 1 0 0 1 0 0 1 0 0 1 1 0 0 1 0 0 1 0 0 1 0 0 0 0 1 0 0 1 0 0 1 0 0 1 1 0 0 1 0 0 1 0 0 1 0 0 0 0 1 0 0 1 0 0 1 0 0 1 1 0 0 1 0 0 1 0 0 1 0 0</float_array>
                    <technique_common>
                        <accessor count="200" source="#ID10" stride="3">
                            <param name="X" type="float" />
                            <param name="Y" type="float" />
                            <param name="Z" type="float" />
                        </accessor>
                    </technique_common>
                </source>
                <vertices id="ID8">
                    <input semantic="POSITION" source="#ID6" />
                    <input semantic="NORMAL" source="#ID7" />
                </vertices>
                <triangles count="100" material="Material2">
                    <input offset="0" semantic="VERTEX" source="#ID8" />
                    <p>0 1 2 1 0 3 4 5 6 5 4 7 8 9 10 9 8 11 12 13 14 13 12 15 16 17 18 17 16 19 20 21 22 21 20 23 24 25 26 25 24 27 28 29 30 29 28 31 32 33 34 33 32 35 36 37 38 37 36 39 40 41 42 41 40 43 44 45 46 45 44 47 48 49 50 49 48 51 52 53 54 53 52 55 56 57 58 57 56 59 60 61 62 61 60 63 64 65 66 65 64 67 68 69 70 69 68 71 72 73 74 73 72 75 76 77 78 77 76 79 80 81 82 81 80 83 84 85 86 85 84 87 88 89 90 89 88 91 92 93 94 93 92 95 96 97 98 97 96 99 100 101 102 101 100 103 104 105 106 105 104 107 108 109 110 109 108 111 112 113 114 113 112 115 116 117 118 117 116 119 120 121 122 121 120 123 124 125 126 125 124 127 128 129 130 129 128 131 132 133 134 133 132 135 136 137 138 137 136 139 140 141 142 141 140 143 144 145 146 145 144 147 148 149 150 149 148 151 152 153 154 153 152 155 156 157 158 157 156 159 160 161 162 161 160 163 164 165 166 165 164 167 168 169 170 169 168 171 172 173 174 173 172 175 176 177 178 177 176 179 180 181 182 181 180 183 184 185 186 185 184 187 188 189 190 189 188 191 192 193 194 193 192 195 196 197 198 197 196 199</p>
                </triangles>
            </mesh>
        </geometry>
        <geometry id="ID11">
            <mesh>
                <source id="ID17">
                    <float_array id="ID21" count="579">1849.05 2.273737e-013 19.68504 1844.129 393.7008 19.68504 1844.129 2.273737e-013 19.68504 1849.05 393.7008 19.68504 1853.971 2.273737e-013 19.68504 1853.971 393.7008 19.68504 1858.893 2.273737e-013 19.68504 1858.893 393.7008 19.68504 1863.814 2.273737e-013 19.68504 1863.814 393.7008 19.68504 1863.814 98.4252 0 1863.814 2.273737e-013 4.92126 1863.814 2.273737e-013 0 1863.814 2.273737e-013 9.84252 1863.814 2.273737e-013 14.76378 1863.814 2.273737e-013 19.68504 1863.814 393.7008 19.68504 1863.814 196.8504 0 1863.814 295.2756 0 1863.814 393.7008 0 1863.814 393.7008 4.92126 1863.814 393.7008 9.84252 1863.814 393.7008 14.76378 1844.129 393.7008 19.68504 1844.129 2.273737e-013 24.6063 1844.129 2.273737e-013 19.68504 1844.129 2.273737e-013 29.52756 1844.129 2.273737e-013 34.44882 1844.129 2.273737e-013 39.37008 1844.129 393.7008 39.37008 1844.129 393.7008 24.6063 1844.129 393.7008 29.52756 1844.129 393.7008 34.44882 1829.365 2.273737e-013 39.37008 1824.444 393.7008 39.37008 1824.444 2.273737e-013 39.37008 1829.365 393.7008 39.37008 1834.286 2.273737e-013 39.37008 1834.286 393.7008 39.37008 1839.208 2.273737e-013 39.37008 1839.208 393.7008 39.37008 1844.129 2.273737e-013 39.37008 1844.129 393.7008 39.37008 1824.444 393.7008 39.37008 1824.444 4.547474e-013 44.29134 1824.444 2.273737e-013 39.37008 1824.444 4.547474e-013 49.2126 1824.444 4.547474e-013 54.13386 1824.444 4.547474e-013 59.05512 1824.444 393.7008 54.13386 1824.444 393.7008 59.05512 1824.444 393.7008 44.29134 1824.444 393.7008 49.2126 1809.68 4.547474e-013 59.05512 1804.759 393.7008 59.05512 1804.759 4.547474e-013 59.05512 1809.68 393.7008 59.05512 1814.601 4.547474e-013 59.05512 1814.601 393.7008 59.05512 1819.523 4.547474e-013 59.05512 1819.523 393.7008 59.05512 1824.444 4.547474e-013 59.05512 1824.444 393.7008 59.05512 1804.759 393.7008 59.05512 1804.759 4.547474e-013 63.97638 1804.759 4.547474e-013 59.05512 1804.759 4.547474e-013 68.89764 1804.759 4.547474e-013 73.8189 1804.759 4.547474e-013 78.74016 1804.759 393.7008 78.74016 1804.759 393.7008 63.97638 1804.759 393.7008 68.89764 1804.759 393.7008 73.8189 1789.995 4.547474e-013 78.74016 1785.074 393.7008 78.74016 1785.074 4.547474e-013 78.74016 1789.995 393.7008 78.74016 1794.916 4.547474e-013 78.74016 1794.916 393.7008 78.74016 1799.837 4.547474e-013 78.74016 1799.837 393.7008 78.74016 1804.759 4.547474e-013 78.74016 1804.759 393.7008 78.74016 1785.074 393.7008 78.74016 1785.074 4.547474e-013 83.66142 1785.074 4.547474e-013 78.74016 1785.074 4.547474e-013 88.58268 1785.074 4.547474e-013 93.50394 1785.074 4.547474e-013 98.4252 1785.074 393.7008 98.4252 1785.074 393.7008 83.66142 1785.074 393.7008 88.58268 1785.074 393.7008 93.50394 1770.31 4.547474e-013 98.4252 1765.389 393.7008 98.4252 1765.389 4.547474e-013 98.4252 1770.31 393.7008 98.4252 1775.231 4.547474e-013 98.4252 1775.231 393.7008 98.4252 1780.152 4.547474e-013 98.4252 1780.152 393.7008 98.4252 1785.074 4.547474e-013 98.4252 1785.074 393.7008 98.4252 1765.389 393.7008 98.4252 1765.389 4.547474e-013 103.3465 1765.389 4.547474e-013 98.4252 1765.389 4.547474e-013 108.2677 1765.389 4.547474e-013 113.189 1765.389 4.547474e-013 118.1102 1765.389 393.7008 118.1102 1765.389 393.7008 103.3465 1765.389 393.7008 108.2677 1765.389 393.7008 113.189 1750.625 4.547474e-013 118.1102 1745.704 393.7008 118.1102 1745.704 4.547474e-013 118.1102 1750.625 393.7008 118.1102 1755.546 4.547474e-013 118.1102 1755.546 393.7008 118.1102 1760.467 4.547474e-013 118.1102 1760.467 393.7008 118.1102 1765.389 4.547474e-013 118.1102 1765.389 393.7008 118.1102 1745.704 393.7008 118.1102 1745.704 4.547474e-013 123.0315 1745.704 4.547474e-013 118.1102 1745.704 4.547474e-013 127.9528 1745.704 4.547474e-013 132.874 1745.704 4.547474e-013 137.7953 1745.704 393.7008 137.7953 1745.704 393.7008 123.0315 1745.704 393.7008 127.9528 1745.704 393.7008 132.874 1730.94 4.547474e-013 137.7953 1726.019 393.7008 137.7953 1726.019 4.547474e-013 137.7953 1730.94 393.7008 137.7953 1735.861 4.547474e-013 137.7953 1735.861 393.7008 137.7953 1740.782 4.547474e-013 137.7953 1740.782 393.7008 137.7953 1745.704 4.547474e-013 137.7953 1745.704 393.7008 137.7953 1726.019 393.7008 137.7953 1726.019 4.547474e-013 142.7165 1726.019 4.547474e-013 137.7953 1726.019 4.547474e-013 147.6378 1726.019 4.547474e-013 152.5591 1726.019 4.547474e-013 157.4803 1726.019 393.7008 157.4803 1726.019 393.7008 142.7165 1726.019 393.7008 147.6378 1726.019 393.7008 152.5591 1711.255 4.547474e-013 157.4803 1706.334 393.7008 157.4803 1706.334 4.547474e-013 157.4803 1711.255 393.7008 157.4803 1716.176 4.547474e-013 157.4803 1716.176 393.7008 157.4803 1721.097 4.547474e-013 157.4803 1721.097 393.7008 157.4803 1726.019 4.547474e-013 157.4803 1726.019 393.7008 157.4803 1706.334 393.7008 157.4803 1706.334 4.547474e-013 162.4016 1706.334 4.547474e-013 157.4803 1706.334 4.547474e-013 167.3228 1706.334 4.547474e-013 172.2441 1706.334 4.547474e-013 177.1654 1706.334 393.7008 177.1654 1706.334 393.7008 162.4016 1706.334 393.7008 167.3228 1706.334 393.7008 172.2441 1691.57 4.547474e-013 177.1654 1686.648 393.7008 177.1654 1686.648 4.547474e-013 177.1654 1691.57 393.7008 177.1654 1696.491 4.547474e-013 177.1654 1696.491 393.7008 177.1654 1701.412 4.547474e-013 177.1654 1701.412 393.7008 177.1654 1706.334 4.547474e-013 177.1654 1706.334 393.7008 177.1654 1686.648 393.7008 177.1654 1686.648 4.547474e-013 182.0866 1686.648 4.547474e-013 177.1654 1686.648 4.547474e-013 187.0079 1686.648 4.547474e-013 191.9291 1686.648 393.7008 202.7559 1686.648 393.7008 191.9291 1686.648 393.7008 187.0079 1686.648 393.7008 182.0866 1686.648 0 202.7559</float_array>
                    <technique_common>
                        <accessor count="193" source="#ID21" stride="3">
                            <param name="X" type="float" />
                            <param name="Y" type="float" />
                            <param name="Z" type="float" />
                        </accessor>
                    </technique_common>
                </source>
                <source id="ID18">
                    <float_array id="ID22" count="579">0 0 1 0 0 1 0 0 1 0 0 1 0 0 1 0 0 1 0 0 1 0 0 1 0 0 1 0 0 1 1 0 0 1 0 0 1 0 0 1 0 0 1 0 0 1 0 0 1 0 0 1 0 0 1 0 0 1 0 0 1 0 0 1 0 0 1 0 0 1 0 0 1 0 0 1 0 0 1 0 0 1 0 0 1 0 0 1 0 0 1 0 0 1 0 0 1 0 0 0 0 1 0 0 1 0 0 1 0 0 1 0 0 1 0 0 1 0 0 1 0 0 1 0 0 1 0 0 1 1 0 0 1 0 0 1 0 0 1 0 0 1 0 0 1 0 0 1 0 0 1 0 0 1 0 0 1 0 0 0 0 1 0 0 1 0 0 1 0 0 1 0 0 1 0 0 1 0 0 1 0 0 1 0 0 1 0 0 1 1 0 0 1 0 0 1 0 0 1 0 0 1 0 0 1 0 0 1 0 0 1 0 0 1 0 0 1 0 0 0 0 1 0 0 1 0 0 1 0 0 1 0 0 1 0 0 1 0 0 1 0 0 1 0 0 1 0 0 1 1 0 0 1 0 0 1 0 0 1 0 0 1 0 0 1 0 0 1 0 0 1 0 0 1 0 0 1 0 0 -4.055845e-032 1.443823e-016 1 -4.055845e-032 1.443823e-016 1 -4.055845e-032 1.443823e-016 1 -4.055845e-032 1.443823e-016 1 -4.055845e-032 1.443823e-016 1 -4.055845e-032 1.443823e-016 1 -4.055845e-032 1.443823e-016 1 -4.055845e-032 1.443823e-016 1 -4.055845e-032 1.443823e-016 1 -4.055845e-032 1.443823e-016 1 1 0 0 1 0 0 1 0 0 1 0 0 1 0 0 1 0 0 1 0 0 1 0 0 1 0 0 1 0 0 0 0 1 0 0 1 0 0 1 0 0 1 0 0 1 0 0 1 0 0 1 0 0 1 0 0 1 0 0 1 1 0 0 1 0 0 1 0 0 1 0 0 1 0 0 1 0 0 1 0 0 1 0 0 1 0 0 1 0 0 6.670798e-033 1.443823e-016 1 6.670798e-033 1.443823e-016 1 6.670798e-033 1.443823e-016 1 6.670798e-033 1.443823e-016 1 6.670798e-033 1.443823e-016 1 6.670798e-033 1.443823e-016 1 6.670798e-033 1.443823e-016 1 6.670798e-033 1.443823e-016 1 6.670798e-033 1.443823e-016 1 6.670798e-033 1.443823e-016 1 1 0 0 1 0 0 1 0 0 1 0 0 1 0 0 1 0 0 1 0 0 1 0 0 1 0 0 1 0 0 0 0 1 0 0 1 0 0 1 0 0 1 0 0 1 0 0 1 0 0 1 0 0 1 0 0 1 0 0 1 1 0 0 1 0 0 1 0 0 1 0 0 1 0 0 1 0 0 1 0 0 1 0 0 1 0 0 1 0 0 -7.444611e-032 1.443823e-016 1 -7.444611e-032 1.443823e-016 1 -7.444611e-032 1.443823e-016 1 -7.444611e-032 1.443823e-016 1 -7.444611e-032 1.443823e-016 1 -7.444611e-032 1.443823e-016 1 -7.444611e-032 1.443823e-016 1 -7.444611e-032 1.443823e-016 1 -7.444611e-032 1.443823e-016 1 -7.444611e-032 1.443823e-016 1 1 0 0 1 0 0 1 0 0 1 0 0 1 0 0 1 0 0 1 0 0 1 0 0 1 0 0 1 0 0</float_array>
                    <technique_common>
                        <accessor count="193" source="#ID22" stride="3">
                            <param name="X" type="float" />
                            <param name="Y" type="float" />
                            <param name="Z" type="float" />
                        </accessor>
                    </technique_common>
                </source>
                <source id="ID20">
                    <float_array id="ID23" count="332">-487.2901 17.80359 -487.7003 50.61199 -487.7003 17.80359 -487.2901 50.61199 -486.88 17.80359 -486.88 50.61199 -486.4699 17.80359 -486.4699 50.61199 -486.0598 17.80359 -486.0598 50.61199 26.00569 0 17.80359 0.410105 17.80359 0 17.80359 0.82021 17.80359 1.230315 17.80359 1.64042 50.61199 1.64042 34.20779 0 42.40989 0 50.61199 0 50.61199 0.410105 50.61199 0.82021 50.61199 1.230315 17.80359 2.050525 17.80359 2.46063 17.80359 2.870735 17.80359 3.28084 50.61199 3.28084 50.61199 2.050525 50.61199 2.46063 50.61199 2.870735 -488.9306 17.80359 -489.3407 50.61199 -489.3407 17.80359 -488.9306 50.61199 -488.5205 17.80359 -488.5205 50.61199 -488.1104 17.80359 -488.1104 50.61199 17.80359 3.690945 17.80359 4.10105 17.80359 4.511155 17.80359 4.92126 50.61199 4.511155 50.61199 4.92126 50.61199 3.690945 50.61199 4.10105 -490.571 17.80359 -490.9811 50.61199 -490.9811 17.80359 -490.571 50.61199 -490.1609 17.80359 -490.1609 50.61199 -489.7508 17.80359 -489.7508 50.61199 -489.3407 17.80359 -489.3407 50.61199 17.80359 5.331365 17.80359 5.74147 17.80359 6.151575 17.80359 6.56168 50.61199 6.56168 50.61199 5.331365 50.61199 5.74147 50.61199 6.151575 -492.2114 17.80359 -492.6215 50.61199 -492.6215 17.80359 -492.2114 50.61199 -491.8013 17.80359 -491.8013 50.61199 -491.3912 17.80359 -491.3912 50.61199 17.80359 6.971785 17.80359 7.38189 17.80359 7.791995 17.80359 8.2021 50.61199 8.2021 50.61199 6.971785 50.61199 7.38189 50.61199 7.791995 -493.8518 17.80359 -494.2619 50.61199 -494.2619 17.80359 -493.8518 50.61199 -493.4417 17.80359 -493.4417 50.61199 -493.0316 17.80359 -493.0316 50.61199 -492.6215 17.80359 17.80359 8.612205 17.80359 9.02231 17.80359 9.432415 17.80359 9.84252 50.61199 9.84252 50.61199 8.612205 50.61199 9.02231 50.61199 9.432415 -495.4922 17.80359 -495.9024 50.61199 -495.9024 17.80359 -495.4922 50.61199 -495.0821 17.80359 -495.0821 50.61199 -494.672 17.80359 -494.672 50.61199 -494.2619 17.80359 17.80359 10.25262 17.80359 10.66273 17.80359 11.07283 17.80359 11.48294 50.61199 11.48294 50.61199 10.25262 50.61199 10.66273 50.61199 11.07283 -497.1327 17.80359 -497.5428 50.61199 -497.5428 17.80359 -497.1327 50.61199 -496.7226 17.80359 -496.7226 50.61199 -496.3125 17.80359 -496.3125 50.61199 -495.9024 17.80359 17.80359 11.89304 17.80359 12.30315 17.80359 12.71325 17.80359 13.12336 50.61199 13.12336 50.61199 11.89304 50.61199 12.30315 50.61199 12.71325 -498.7731 17.80359 -499.1832 50.61199 -499.1832 17.80359 -498.7731 50.61199 -498.363 17.80359 -498.363 50.61199 -497.9529 17.80359 -497.9529 50.61199 -497.5428 17.80359 17.80359 13.53346 17.80359 13.94357 17.80359 14.35367 17.80359 14.76378 50.61199 14.76378 50.61199 13.53346 50.61199 13.94357 50.61199 14.35367 -500.4135 17.80359 -500.8236 50.61199 -500.8236 17.80359 -500.4135 50.61199 -500.0034 17.80359 -500.0034 50.61199 -499.5933 17.80359 -499.5933 50.61199 -499.1832 17.80359 17.80359 15.17388 17.80359 15.58399 17.80359 15.99409 50.61199 16.89633 50.61199 15.99409 50.61199 15.58399 50.61199 15.17388 17.80359 16.89633</float_array>
                    <technique_common>
                        <accessor count="166" source="#ID23" stride="2">
                            <param name="S" type="float" />
                            <param name="T" type="float" />
                        </accessor>
                    </technique_common>
                </source>
                <vertices id="ID19">
                    <input semantic="POSITION" source="#ID17" />
                    <input semantic="NORMAL" source="#ID18" />
                </vertices>
                <triangles count="155" material="Material2">
                    <input offset="0" semantic="VERTEX" source="#ID19" />
                    <input offset="1" semantic="TEXCOORD" source="#ID20" />
                    <p>0 0 1 1 2 2 1 1 0 0 3 3 3 3 0 0 4 4 3 3 4 4 5 5 5 5 4 4 6 6 5 5 6 6 7 7 7 7 6 6 8 8 7 7 8 8 9 9 10 10 11 11 12 12 11 11 10 10 13 13 13 13 10 10 14 14 14 14 10 10 15 15 15 15 10 10 16 16 16 16 10 10 17 17 16 16 17 17 18 18 16 16 18 18 19 19 16 16 19 19 20 20 16 16 20 20 21 21 16 16 21 21 22 22 23 16 24 23 25 15 24 23 23 16 26 24 26 24 23 16 27 25 27 25 23 16 28 26 28 26 23 16 29 27 29 27 23 16 30 28 29 27 30 28 31 29 29 27 31 29 32 30 33 31 34 32 35 33 34 32 33 31 36 34 36 34 33 31 37 35 36 34 37 35 38 36 38 36 37 35 39 37 38 36 39 37 40 38 40 38 39 37 41 2 40 38 41 2 42 1 43 27 44 39 45 26 44 39 43 27 46 40 46 40 43 27 47 41 47 41 43 27 48 42 48 42 43 27 49 43 48 42 49 43 50 44 49 43 43 27 51 45 49 43 51 45 52 46 53 47 54 48 55 49 54 48 53 47 56 50 56 50 53 47 57 51 56 50 57 51 58 52 58 52 57 51 59 53 58 52 59 53 60 54 60 54 59 53 61 55 60 54 61 55 62 56 63 44 64 57 65 42 64 57 63 44 66 58 66 58 63 44 67 59 67 59 63 44 68 60 68 60 63 44 69 61 69 61 63 44 70 62 69 61 70 62 71 63 69 61 71 63 72 64 73 65 74 66 75 67 74 66 73 65 76 68 76 68 73 65 77 69 76 68 77 69 78 70 78 70 77 69 79 71 78 70 79 71 80 72 80 72 79 71 81 49 80 72 81 49 82 48 83 61 84 73 85 60 84 73 83 61 86 74 86 74 83 61 87 75 87 75 83 61 88 76 88 76 83 61 89 77 89 77 83 61 90 78 89 77 90 78 91 79 89 77 91 79 92 80 93 81 94 82 95 83 94 82 93 81 96 84 96 84 93 81 97 85 96 84 97 85 98 86 98 86 97 85 99 87 98 86 99 87 100 88 100 88 99 87 101 89 100 88 101 89 102 66 103 77 104 90 105 76 104 90 103 77 106 91 106 91 103 77 107 92 107 92 103 77 108 93 108 93 103 77 109 94 109 94 103 77 110 95 109 94 110 95 111 96 109 94 111 96 112 97 113 98 114 99 115 100 114 99 113 98 116 101 116 101 113 98 117 102 116 101 117 102 118 103 118 103 117 102 119 104 118 103 119 104 120 105 120 105 119 104 121 106 120 105 121 106 122 82 123 94 124 107 125 93 124 107 123 94 126 108 126 108 123 94 127 109 127 109 123 94 128 110 128 110 123 94 129 111 129 111 123 94 130 112 129 111 130 112 131 113 129 111 131 113 132 114 133 115 134 116 135 117 134 116 133 115 136 118 136 118 133 115 137 119 136 118 137 119 138 120 138 120 137 119 139 121 138 120 139 121 140 122 140 122 139 121 141 123 140 122 141 123 142 99 143 111 144 124 145 110 144 124 143 111 146 125 146 125 143 111 147 126 147 126 143 111 148 127 148 127 143 111 149 128 149 128 143 111 150 129 149 128 150 129 151 130 149 128 151 130 152 131 153 132 154 133 155 134 154 133 153 132 156 135 156 135 153 132 157 136 156 135 157 136 158 137 158 137 157 136 159 138 158 137 159 138 160 139 160 139 159 138 161 140 160 139 161 140 162 116 163 128 164 141 165 127 164 141 163 128 166 142 166 142 163 128 167 143 167 143 163 128 168 144 168 144 163 128 169 145 169 145 163 128 170 146 169 145 170 146 171 147 169 145 171 147 172 148 173 149 174 150 175 151 174 150 173 149 176 152 176 152 173 149 177 153 176 152 177 153 178 154 178 154 177 153 179 155 178 154 179 155 180 156 180 156 179 155 181 157 180 156 181 157 182 133 183 145 184 158 185 144 184 158 183 145 186 159 186 159 183 145 187 160 187 160 183 145 188 161 188 161 183 145 189 162 189 162 183 145 190 163 190 163 183 145 191 164 188 161 192 165 187 160</p>
                </triangles>
            </mesh>
        </geometry>
    </library_geometries>
    <library_materials>
        <material id="ID5" name="material">
            <instance_effect url="#ID4" />
        </material>
        <material id="ID12" name="Granite_Light_Gray">
            <instance_effect url="#ID13" />
        </material>
    </library_materials>
    <library_effects>
        <effect id="ID4">
            <profile_COMMON>
                <technique sid="COMMON">
                    <lambert>
                        <diffuse>
                            <color>1 1 1 1</color>
                        </diffuse>
                    </lambert>
                </technique>
            </profile_COMMON>
        </effect>
        <effect id="ID13">
            <profile_COMMON>
                <newparam sid="ID15">
                    <surface type="2D">
                        <init_from>ID14</init_from>
                    </surface>
                </newparam>
                <newparam sid="ID16">
                    <sampler2D>
                        <source>ID15</source>
                    </sampler2D>
                </newparam>
                <technique sid="COMMON">
                    <lambert>
                        <diffuse>
                            <texture texture="ID16" texcoord="UVSET0" />
                        </diffuse>
                    </lambert>
                </technique>
            </profile_COMMON>
        </effect>
    </library_effects>
    <library_images>
        <image id="ID14">
            <init_from>fort%201%20collision/Granite_Light_Gray.jpg</init_from>
        </image>
    </library_images>
    <scene>
        <instance_visual_scene url="#ID1" />
    </scene>
</COLLADA>
